{
  "connection": "default",
  "collectionName": "",
  "info": {
    "name": "palmtype",
    "description": ""
  },
  "options": {
    "timestamps": true
  },
  "attributes": {
    "uuid": {
      "default": "",
      "type": "string"
    },
    "name": {
      "default": "",
      "type": "string"
    }
  }
}