{
  "routes": [
    {
      "method": "GET",
      "path": "/uplinks",
      "handler": "Uplink.find",
      "config": {
        "policies": []
      }
    },
    {
      "method": "GET",
      "path": "/uplinks/count",
      "handler": "Uplink.count",
      "config": {
        "policies": []
      }
    },
    {
      "method": "GET",
      "path": "/uplinks/:_id",
      "handler": "Uplink.findOne",
      "config": {
        "policies": []
      }
    },
    {
      "method": "POST",
      "path": "/uplinks",
      "handler": "Uplink.create",
      "config": {
        "policies": []
      }
    },
    {
      "method": "POST",
      "path": "/uplinks/receive",
      "handler": "Uplink.nakheel_int_receivedUplink",
      "config": {
        "policies": []
      }
    },
    {
      "method": "PUT",
      "path": "/uplinks/:_id",
      "handler": "Uplink.update",
      "config": {
        "policies": []
      }
    },
    {
      "method": "DELETE",
      "path": "/uplinks/:_id",
      "handler": "Uplink.destroy",
      "config": {
        "policies": []
      }
    }
  ]
}